…
\#1

``` r
flights %>% 
  filter(is.na(dep_time))
```

    ## # A tibble: 8,255 x 19
    ##     year month   day dep_time sched_dep_time dep_delay arr_time sched_arr_time
    ##    <int> <int> <int>    <int>          <int>     <dbl>    <int>          <int>
    ##  1  2013     1     1       NA           1630        NA       NA           1815
    ##  2  2013     1     1       NA           1935        NA       NA           2240
    ##  3  2013     1     1       NA           1500        NA       NA           1825
    ##  4  2013     1     1       NA            600        NA       NA            901
    ##  5  2013     1     2       NA           1540        NA       NA           1747
    ##  6  2013     1     2       NA           1620        NA       NA           1746
    ##  7  2013     1     2       NA           1355        NA       NA           1459
    ##  8  2013     1     2       NA           1420        NA       NA           1644
    ##  9  2013     1     2       NA           1321        NA       NA           1536
    ## 10  2013     1     2       NA           1545        NA       NA           1910
    ## # ... with 8,245 more rows, and 11 more variables: arr_delay <dbl>,
    ## #   carrier <chr>, flight <int>, tailnum <chr>, origin <chr>, dest <chr>,
    ## #   air_time <dbl>, distance <dbl>, hour <dbl>, minute <dbl>, time_hour <dttm>
…
\#2

``` r
flights %>% 
  select(dep_time, sched_dep_time) %>% 
  mutate(dep_minutes_since_midnight = ((dep_time %/% 100)*60 + dep_time %% 100),
         sched_dep_minutes_since_midnight = ((sched_dep_time %/% 100)*60 + sched_dep_time %% 100))
```

    ## # A tibble: 336,776 x 4
    ##    dep_time sched_dep_time dep_minutes_since_midnight sched_dep_minutes_since_m~
    ##       <int>          <int>                      <dbl>                      <dbl>
    ##  1      517            515                        317                        315
    ##  2      533            529                        333                        329
    ##  3      542            540                        342                        340
    ##  4      544            545                        344                        345
    ##  5      554            600                        354                        360
    ##  6      554            558                        354                        358
    ##  7      555            600                        355                        360
    ##  8      557            600                        357                        360
    ##  9      557            600                        357                        360
    ## 10      558            600                        358                        360
    ## # ... with 336,766 more rows
…
    ## `summarise()` has grouped output by 'year', 'month'. You can override using the `.groups` argument.

``` r
cancelled_flights
```

    ## # A tibble: 365 x 6
    ## # Groups:   year, month [12]
    ##     year month   day cancelled_num avg_cancelled flights_num
    ##    <int> <int> <int>         <int>         <dbl>       <int>
    ##  1  2013     1     1            11       0.0131          842
    ##  2  2013     1     2            15       0.0159          943
    ##  3  2013     1     3            14       0.0153          914
    ##  4  2013     1     4             7       0.00765         915
    ##  5  2013     1     5             3       0.00417         720
    ##  6  2013     1     6             3       0.00361         832
    ##  7  2013     1     7             3       0.00322         933
    ##  8  2013     1     8             7       0.00779         899
    ##  9  2013     1     9             9       0.00998         902
    ## 10  2013     1    10             3       0.00322         932
    ## # ... with 355 more rows
…
